123
262
271	i
44
271	sum
59
262
91
272	0x0000000a
93
271	data
59
271	sum
61
272	0x00000000
59
271	i
61
272	0x00000000
59
265
40
271	i
60
272	0x0000000a
41
123
268
40
271	data
91
271	i
93
41
59
271	i
61
271	i
43
272	0x00000001
59
125
265
40
271	i
261
272	0x00000000
41
123
262
271	tmp
59
271	i
61
271	i
45
272	0x00000001
59
271	tmp
61
271	data
91
271	i
93
59
263
40
271	tmp
259
272	0x00000000
41
123
271	sum
61
271	sum
43
271	tmp
59
125
264
123
271	sum
61
271	sum
45
271	tmp
59
125
125
270
40
273	sum of absolute values = 
44
271	sum
41
59
125
